[
    {
      "codigo": "3",
      "numSerie": "KLO7890123",
      "precioDia": "220",
      "almacen": "ALM004",
      "imagen": "205NXT.webp",
      "extraImagenes": "[\"extra13.jpg\",\"extra14.jpeg\",\"extra15.jpeg\"]",
      "modelo": "205 nxt",
      "marca": "jcb",
      "descripcion": "La JCB 205 NXT incorpora un sistema telemático de avanzada, JCB LiveLink, que lo mantiene actualizado sobre el estado, el mantenimiento y la seguridad de la máquina",
      "anio": "2015",
      "capacidad": "22500",
      "categoria": "excavadora",
      "limite": "32000"
    },
    {
      "codigo": "9",
      "numSerie": "R2F7PQ1Y8N",
      "precioDia": "150",
      "almacen": "ALM005",
      "imagen": "320GC.jpg",
      "extraImagenes": "[\"extra31.jpeg\",\"extra32.jpeg\",\"extra33.webp\"]",
      "modelo": "320 gc",
      "marca": "caterpillar",
      "descripcion": "La Excavadora 320GC Cat® equilibra la productividad con las funciones de las tecnologías fáciles de utilizar, una nueva cabina cómoda, un consumo de combustible reducido de hasta un 20% e intervalos de mantenimiento más largos, que reducen los costos de mantenimiento hasta en un 20% para ofrecer una excavadora de bajo costo por hora para aplicaciones de servicio mediano a ligero.",
      "anio": "2019",
      "capacidad": "20300",
      "categoria": "excavadora",
      "limite": "32000"
    },
    {
      "codigo": "10",
      "numSerie": "LK9J4H6G2I",
      "precioDia": "190",
      "almacen": "ALM005",
      "imagen": "M315.jpeg",
      "extraImagenes": "[\"extra34.jpeg\",\"extra35.jpeg\",\"extra36.jpeg\"]",
      "modelo": "m315",
      "marca": "caterpillar",
      "descripcion": "La Excavadora de Ruedas Cat® M315 ofrece el mejor rendimiento con hasta un 15 % más par de giro y opciones de tecnología para aumentar la productividad. Ahorre tiempo y dinero con hasta un 10 % de ahorros en los costos de mantenimiento, intervalos de servicio más prolongados y mantenimiento diario a nivel del suelo. Con la M315 obtiene la potencia que necesita para trabajar más tiempo y generar ganancias. ",
      "anio": "1999",
      "capacidad": "15700",
      "categoria": "excavadora",
      "limite": "32000"
    },
    {
      "codigo": "11",
      "numSerie": "X3ZVU5O1WM",
      "precioDia": "200",
      "almacen": "ALM006",
      "imagen": "826K.jpg",
      "extraImagenes": "[\"extra37.jpeg\",\"extra38.jpg\",\"extra39.jpeg\"]",
      "modelo": "826k",
      "marca": "caterpillar",
      "descripcion": "Diseñado específicamente para aplicaciones de rellenos sanitarios, el Compactador de Rellenos Sanitarios Cat 826K ofrece un nivel de confiabilidad, rendimiento, seguridad, comodidad del operador, facilidad de servicio y eficiencia que solo puede provenir de los más de 35 años de liderazgo en la industria. La protección probada en el campo y las tecnologías integradas proporcionan una disponibilidad máxima y un rendimiento optimizado del relleno sanitario.",
      "anio": "2020",
      "capacidad": "40917",
      "categoria": "compactadora",
      "limite": "20220"
    },
    {
      "codigo": "12",
      "numSerie": "E8DCB2A5ZX",
      "precioDia": "210",
      "almacen": "ALM006",
      "imagen": "CT160.jpeg",
      "extraImagenes": "[\"extra40.webp\",\"extra41.jpg\",\"extra42.jpg\"]",
      "modelo": "ct160",
      "marca": "jcb",
      "descripcion": "Los rodillos vibratorios en tándem JCB CT160-80/100 son fáciles de usar, fáciles de mantener, fáciles de mantener seguros y fáciles de lograr mayor productividad.",
      "anio": "2022",
      "capacidad": "1790",
      "categoria": "compactadora",
      "limite": "20220"
    },
    {
      "codigo": "13",
      "numSerie": "YTN6K9L7RM",
      "precioDia": "165",
      "almacen": "ALM006",
      "imagen": "1CTX.webp",
      "extraImagenes": "[\"extra43.jpg\",\"extra44.webp\",\"extra45.jpg\"]",
      "modelo": "1cxt",
      "marca": "jcb",
      "descripcion": "La 1CX ha sido siempre una máquina compacta y muy versatil, ofreciendo el desempeño de un minicargador y una minoexcavadora en un solo paquete. Ahora le damos la opción de ir sobre orugas con la 1CXT para reducción de daños a la superficie, escalada superlaitva, poder de empuje excepcional, estabilidad incomparable y desempeño mejorado en suelo suave.",
      "anio": "2018",
      "capacidad": "4342",
      "categoria": "retroexcavadoras",
      "limite": "11000"
    },
    {
      "codigo": "14",
      "numSerie": "U2P3O9GK1L",
      "precioDia": "110",
      "almacen": "ALM007",
      "imagen": "TM320.jpg",
      "extraImagenes": "[\"extra46.jpg\",\"extra47.jpg\",\"extra48.jpg\"]",
      "modelo": "tm320",
      "marca": "jcb",
      "descripcion": "Se equipan con un motor potente, 4WD permanente, servocontroles y muchos otros beneficios. Con dirección articulada, alcance telescópico y una amplia gama de accesorios, la JCB TM320 es una máquina supremamente productiva. En resumen, la TM320 combina las características de una pala cargadora de ruedas con los beneficios de una pluma telescópica para brindar una gran versatilidad en cualquier sitio.",
      "anio": "2019",
      "capacidad": "1750",
      "categoria": "cargadores de ruedas",
      "limite": "30000"
    },
    {
      "codigo": "15",
      "numSerie": "M7NB5Z3XVC",
      "precioDia": "210",
      "almacen": "ALM007",
      "imagen": "HD405-7.jpeg",
      "extraImagenes": "[\"extra49.jpeg\",\"extra50.jpeg\",\"extra51.jpeg\"]",
      "modelo": "hd405-7",
      "marca": "komatsu",
      "descripcion": "Komatsu HD405-7 Camión dúmper de obras Komatsu son robustos y fiables que ofrecen una ergonomía excepcional al operador al tiempo que ofrecen una excelente eficiencia de acarreo para la producción máxima.",
      "anio": "2011",
      "capacidad": "74480",
      "categoria": "camiones mecánicos",
      "limite": "30000"
    },
    {
      "codigo": "16",
      "numSerie": "W1Q8R6J4SD",
      "precioDia": "220",
      "almacen": "ALM008",
      "imagen": "HD605-7E0.jpg",
      "extraImagenes": "[\"extra52.jpg\",\"extra53.jpeg\",\"extra54.jpeg\"]",
      "modelo": "hd605-7e0",
      "marca": "komatsu",
      "descripcion": "Con una distancia mayor entre ejes de las ruedas, una rodadura ancha y un centro de gravedad bajo excepcional, el HD605-7E0 transporta la carga a mayor velocidad para una mayor producción, y ofrece mayor comodidad de conducción en terrenos irregulares.",
      "anio": "2015",
      "capacidad": "46943",
      "categoria": "camiones mecánicos",
      "limite": "30000"
    },
    {
      "codigo": "17",
      "numSerie": "F9A2C7E3LP",
      "precioDia": "135",
      "almacen": "ALM009",
      "imagen": "MT100.jpg",
      "extraImagenes": "[\"extra55.jpg\",\"extra56.jpeg\",\"extra57.jpeg\"]",
      "modelo": "mt100",
      "marca": "bobcat & company",
      "descripcion": "No se necesitan carretillas, palas y otras herramientas manuales en las obras cuando se tiene el minicargador con orugas MT100 de Bobcat®. Esta máquina atraviesa porterías, puertas y otros espacios angostos con facilidad, y además brinda potencia con su gran capacidad de operación nominal de 1.000-lb., su asombrosa fuerza de rompimiento y su increíble altura de elevación.",
      "anio": "2023",
      "capacidad": "1538",
      "categoria": "minicargadores",
      "limite": "1225"
    },
    {
      "codigo": "18",
      "numSerie": "I9R3G7F4OB",
      "precioDia": "177",
      "almacen": "ALM010",
      "imagen": "T770.webp",
      "extraImagenes": "[\"extra58.webp\",\"extra59.jpeg\",\"extra60.jpg\"]",
      "modelo": "t770",
      "marca": "bobcat & company",
      "descripcion": "Con 3.35 m (11 pies) de elevación vertical, el® cargador compacto con orugas T770 Bobcat es ideal para cargar camiones, trituradoras y tolvas al igual que para muchos otros trabajos. Su trayectoria de elevación vertical permite colocar la carga con facilidad y realizar las tareas exigentes.",
      "anio": "2022",
      "capacidad": "4684",
      "categoria": "cargadores de oruga",
      "limite": "28985"
    }
  ]